[
  {
    "Cloud Service One": 1
  },
  {
    "Cloud Service Two": 2
  },
  {
    "Cloud Service Three": 2
  },
  {
    "Cloud Service Four": 2
  },
  {
    "Cloud Service Five": 2
  },
  {
    "Cloud Service Six": 1
  }
]

